^C:\USERS\UNDER\DESKTOP\GAMEDEV\C++\CONSOLEAPPLICATION1\CONSOLEAPPLICATION1\DEBUG\CONSOLEAPPLICATION1.OBJ
C:\USERS\UNDER\DESKTOP\GAMEDEV\C++\CONSOLEAPPLICATION1\DEBUG\CONSOLEAPPLICATION1.EXE
C:\USERS\UNDER\DESKTOP\GAMEDEV\C++\CONSOLEAPPLICATION1\DEBUG\CONSOLEAPPLICATION1.ILK
C:\USERS\UNDER\DESKTOP\GAMEDEV\C++\CONSOLEAPPLICATION1\DEBUG\CONSOLEAPPLICATION1.PDB
